<?xml version="1.0" encoding="UTF-8" standalone="no"?>
<svg width="330px" height="90px" viewBox="0 0 330 90" version="1.1" xmlns="http://www.w3.org/2000/svg" xmlns:xlink="http://www.w3.org/1999/xlink">
    <!-- Generator: Sketch 39.1 (31720) - http://www.bohemiancoding.com/sketch -->
    <title>eskimobi-copyright</title>
    <desc>Created with Sketch.</desc>
    <defs></defs>
    <g id="Page-1" stroke="none" stroke-width="1" fill="none" fill-rule="evenodd">
        <g id="eskimobi-logo-single-color-copy" transform="translate(-109.000000, -69.000000)">
            <g id="eskimobi-copyright" transform="translate(109.000000, 69.000000)">
                <rect id="Rectangle" fill="#3FD7CB" x="0" y="0" width="330" height="90" rx="13"></rect>
                <path d="M55.204,51.928 C53.9026602,53.186673 52.4626746,53.816 50.884,53.816 L35.716,53.816 C35.716,55.0106726 36.419993,56.0133293 37.828,56.824 C39.236007,57.6346707 40.643993,58.04 42.052,58.04 C44.526679,58.04 46.467993,57.7840026 47.876,57.272 L48.58,57.016 C49.6040051,56.5466643 50.4573299,56.312 51.14,56.312 C52.5053402,56.312 53.6786618,57.2719904 54.66,59.192 C55.2146694,60.3440058 55.492,61.3253293 55.492,62.136 C55.492,65.9333523 50.9480454,67.832 41.86,67.832 C38.7026509,67.832 35.8973456,67.2880054 33.444,66.2 C30.9906544,65.1119946 29.0813402,63.672009 27.716,61.88 C25.0279866,58.4239827 23.684,54.562688 23.684,50.296 C23.684,44.9199731 25.4226493,40.6213494 28.9,37.4 C32.3773507,34.1786506 36.7186406,32.568 41.924,32.568 C47.8546963,32.568 52.2066528,34.6586458 54.98,38.84 C56.4306739,41.0586778 57.156,43.4799869 57.156,46.104 C57.156,48.7280131 56.5053398,50.669327 55.204,51.928 L55.204,51.928 Z M43.652,47.992 C45.2733414,47.992 46.084,47.3093402 46.084,45.944 C46.084,44.9626618 45.7106704,44.1733363 44.964,43.576 C44.2173296,42.9786637 43.1506736,42.68 41.764,42.68 C40.3773264,42.68 39.0013402,43.2453277 37.636,44.376 C36.2706598,45.5066723 35.588,46.7119936 35.588,47.992 L43.652,47.992 Z M61.572,63.992 C60.7613293,63.4799974 60.356,62.6693389 60.356,61.56 C60.356,60.4506611 61.1666586,58.7653446 62.788,56.504 C63.2573357,55.778663 64.0146614,55.416 65.06,55.416 C66.1053386,55.416 67.523991,55.9386614 69.316,56.984 C71.108009,58.0293386 72.7293261,58.552 74.18,58.552 C76.7826797,58.552 78.084,58.0400051 78.084,57.016 C78.084,56.2053293 76.654681,55.6080019 73.796,55.224 C71.1079866,54.8399981 68.4413466,53.8373414 65.796,52.216 C64.5586605,51.4479962 63.5346707,50.2426749 62.724,48.6 C61.9133293,46.9573251 61.508,45.0053446 61.508,42.744 C61.508,36.002633 66.137287,32.632 75.396,32.632 C78.4253485,32.632 81.539984,33.3573261 84.74,34.808 C86.2333408,35.4906701 86.98,36.3439949 86.98,37.368 C86.98,38.3920051 86.5106714,39.6506592 85.572,41.144 C84.6333286,42.6373408 83.6733382,43.384 82.692,43.384 C82.1799974,43.384 81.2306736,43.0640032 79.844,42.424 C78.4573264,41.7839968 76.9533414,41.464 75.332,41.464 C72.8146541,41.464 71.556,41.9333286 71.556,42.872 C71.556,44.1520064 73.0066522,44.9839981 75.908,45.368 C78.7240141,45.6666682 81.4546534,46.4773267 84.1,47.8 C85.3373395,48.3973363 86.3719958,49.4319926 87.204,50.904 C88.0360042,52.3760074 88.452,54.2213222 88.452,56.44 C88.452,58.6586778 88.0360042,60.5466589 87.204,62.104 C86.3719958,63.6613411 85.2093408,64.8239962 83.716,65.592 C80.9853197,66.9146733 77.5613539,67.576 73.444,67.576 C69.3266461,67.576 65.3693523,66.3813453 61.572,63.992 L61.572,63.992 Z M112.452,50.104 L120.964,57.144 C122.030672,58.0400045 122.702665,58.7226643 122.98,59.192 C123.257335,59.6613357 123.396,60.1093312 123.396,60.536 C123.396,61.5600051 122.734673,62.9466579 121.412,64.696 C119.961326,66.488009 118.681339,67.384 117.572,67.384 C116.633329,67.384 115.332008,66.7653395 113.668,65.528 L113.028,65.08 C112.046662,64.2693293 110.53201,62.8506768 108.484,60.824 C106.43599,58.7973232 104.878672,57.3573376 103.812,56.504 L103.812,61.432 C103.812,62.4133382 103.78,63.1493309 103.716,63.64 C103.652,64.1306691 103.449335,64.6959968 103.108,65.336 C102.553331,66.4453389 100.91068,67 98.18,67 C95.4919866,67 93.8493363,66.4240058 93.252,65.272 C92.9533318,64.6319968 92.7720003,64.0666691 92.708,63.576 C92.6439997,63.0853309 92.612,62.3493382 92.612,61.368 L92.612,23.032 C92.612,22.0506618 92.6439997,21.3146691 92.708,20.824 C92.7720003,20.3333309 92.9533318,19.7680032 93.252,19.128 C93.8493363,17.9759942 95.5133197,17.4 98.244,17.4 C100.29201,17.4 101.742662,17.762663 102.596,18.488 C103.321337,19.0853363 103.705333,20.0239936 103.748,21.304 C103.790667,21.6880019 103.812,22.2853293 103.812,23.096 L103.812,43.384 C104.580004,42.7439968 105.742659,41.6560077 107.3,40.12 C108.857341,38.5839923 110.019996,37.4960032 110.788,36.856 L111.556,36.344 C113.049341,35.1919942 114.329328,34.616 115.396,34.616 C116.462672,34.616 117.689326,35.4799914 119.076,37.208 C120.462674,38.9360086 121.156,40.2906618 121.156,41.272 C121.156,42.2533382 120.366675,43.4053267 118.788,44.728 L112.452,50.104 Z M126.916,38.904 C126.916,37.9226618 126.948,37.1866691 127.012,36.696 C127.076,36.2053309 127.257332,35.6400032 127.556,35 C128.153336,33.8906611 129.81732,33.336 132.548,33.336 C134.59601,33.336 136.046662,33.698663 136.9,34.424 C137.625337,35.0213363 138.009333,35.9386605 138.052,37.176 C138.094667,37.6026688 138.116,38.2213293 138.116,39.032 L138.116,61.432 C138.116,62.4133382 138.084,63.1493309 138.02,63.64 C137.956,64.1306691 137.753335,64.6959968 137.412,65.336 C136.857331,66.4453389 135.21468,67 132.484,67 C129.795987,67 128.153336,66.4240058 127.556,65.272 C127.257332,64.6319968 127.076,64.0773357 127.012,63.608 C126.948,63.1386643 126.916,62.3920051 126.916,61.368 L126.916,38.904 Z M135.748,28.344 C134.937329,28.6000013 133.860007,28.728 132.516,28.728 C131.171993,28.728 130.094671,28.6000013 129.284,28.344 C128.473329,28.0879987 127.908002,27.6400032 127.588,27 C127.267998,26.3599968 127.076,25.7946691 127.012,25.304 C126.948,24.8133309 126.916,24.0773382 126.916,23.096 C126.916,22.1146618 126.948,21.3786691 127.012,20.888 C127.076,20.3973309 127.257332,19.8533363 127.556,19.256 C128.153336,18.1039942 129.81732,17.528 132.548,17.528 C135.236013,17.528 136.857331,18.1039942 137.412,19.256 C137.753335,19.8960032 137.956,20.4613309 138.02,20.952 C138.084,21.4426691 138.116,22.1786618 138.116,23.16 C138.116,24.1413382 138.084,24.8773309 138.02,25.368 C137.956,25.8586691 137.764002,26.4133302 137.444,27.032 C137.123998,27.6506698 136.558671,28.0879987 135.748,28.344 L135.748,28.344 Z M153.156,56.44 C153.881337,57.165337 154.244,58.6586554 154.244,60.92 L154.244,61.176 C154.244,62.2000051 154.212,62.9573309 154.148,63.448 C154.084,63.9386691 153.860002,64.5253299 153.476,65.208 C152.835997,66.4453395 151.225346,67.064 148.644,67.064 C146.062654,67.064 144.356004,66.6586707 143.524,65.848 C142.691996,65.0373293 142.276,63.5013446 142.276,61.24 L142.276,60.984 C142.276,60.0026618 142.308,59.2560026 142.372,58.744 C142.436,58.2319974 142.638665,57.6560032 142.98,57.016 C143.620003,55.7359936 145.230654,55.096 147.812,55.096 C150.393346,55.096 152.174662,55.5439955 153.156,56.44 L153.156,56.44 Z M169.412,37.752 C171.417343,34.7226515 173.827986,33.208 176.644,33.208 C180.996022,33.208 184.238656,35.0639814 186.372,38.776 C186.841336,38.1359968 187.406663,37.4640035 188.068,36.76 C188.729337,36.0559965 189.785326,35.2880042 191.236,34.456 C192.686674,33.6239958 194.179992,33.208 195.716,33.208 C199.12935,33.208 201.987988,34.5199869 204.292,37.144 C206.596012,39.7680131 207.748,44.109303 207.748,50.168 L207.748,61.368 C207.748,62.3493382 207.716,63.0853309 207.652,63.576 C207.588,64.0666691 207.385335,64.6319968 207.044,65.272 C206.489331,66.4240058 204.84668,67 202.116,67 C199.427987,67 197.785336,66.4026726 197.188,65.208 C196.889332,64.5679968 196.708,64.0026691 196.644,63.512 C196.58,63.0213309 196.548,62.2853382 196.548,61.304 L196.548,50.104 C196.548,46.3919814 195.225347,44.536 192.58,44.536 C191.086659,44.536 190.073336,45.0266618 189.54,46.008 C189.006664,46.9893382 188.74,48.375991 188.74,50.168 L188.74,61.368 C188.74,62.3920051 188.708,63.1386643 188.644,63.608 C188.58,64.0773357 188.377335,64.6319968 188.036,65.272 C187.438664,66.4240058 185.77468,67 183.044,67 C180.355987,67 178.713336,66.4026726 178.116,65.208 C177.817332,64.5679968 177.636,64.0026691 177.572,63.512 C177.508,63.0213309 177.476,62.2853382 177.476,61.304 L177.476,50.104 C177.476,46.3919814 176.153347,44.536 173.508,44.536 C170.947987,44.536 169.668,46.3919814 169.668,50.104 L169.668,61.432 C169.668,62.4133382 169.636,63.1493309 169.572,63.64 C169.508,64.1306691 169.305335,64.6959968 168.964,65.336 C168.323997,66.4453389 166.660013,67 163.972,67 C161.283987,67 159.641336,66.4240058 159.044,65.272 C158.745332,64.6319968 158.564,64.0773357 158.5,63.608 C158.436,63.1386643 158.404,62.3920051 158.404,61.368 L158.404,38.84 C158.404,37.8586618 158.436,37.1226691 158.5,36.632 C158.564,36.1413309 158.766665,35.5973363 159.108,35 C159.748003,33.8479942 161.262655,33.272 163.652,33.272 C166.041345,33.272 167.598663,33.6559962 168.324,34.424 C169.049337,35.1920038 169.412,36.3013261 169.412,37.752 L169.412,37.752 Z M217.284,37.496 C220.868018,34.1679834 224.963977,32.504 229.572,32.504 C234.180023,32.504 238.254649,34.1573168 241.796,37.464 C245.337351,40.7706832 247.108,44.9839744 247.108,50.104 C247.108,53.645351 246.190676,56.7919862 244.356,59.544 C242.521324,62.2960138 240.292013,64.3226602 237.668,65.624 C235.043987,66.9253398 232.324014,67.576 229.508,67.576 C226.691986,67.576 223.961347,66.8826736 221.316,65.496 C218.670653,64.1093264 216.441342,62.0613469 214.628,59.352 C212.814658,56.6426531 211.908,53.5813504 211.908,50.168 C211.908,45.0479744 213.699982,40.8240166 217.284,37.496 L217.284,37.496 Z M229.444,56.312 C230.852007,56.312 232.259993,55.778672 233.668,54.712 C235.076007,53.645328 235.78,52.0666771 235.78,49.976 C235.78,47.8853229 235.118673,46.3280051 233.796,45.304 C232.473327,44.2799949 231.044008,43.768 229.508,43.768 C227.971992,43.768 226.542673,44.301328 225.22,45.368 C223.897327,46.434672 223.236,48.0026563 223.236,50.072 C223.236,52.1413437 223.91866,53.6986614 225.284,54.744 C226.64934,55.7893386 228.035993,56.312 229.444,56.312 L229.444,56.312 Z M269.764,33.336 C273.561352,33.336 277.049317,35.0213165 280.228,38.392 C283.406683,41.7626835 284.996,45.677311 284.996,50.136 C284.996,54.594689 283.417349,58.4986499 280.26,61.848 C277.102651,65.1973501 273.710685,66.872 270.084,66.872 C266.457315,66.872 263.876008,65.8480102 262.34,63.8 C261.998665,65.8906771 260.164017,66.936 256.836,66.936 C254.147987,66.936 252.505336,66.3600058 251.908,65.208 C251.609332,64.5679968 251.428,64.0026691 251.364,63.512 C251.3,63.0213309 251.268,62.2853382 251.268,61.304 L251.268,23.096 C251.268,22.1146618 251.3,21.3786691 251.364,20.888 C251.428,20.3973309 251.609332,19.8533363 251.908,19.256 C252.505336,18.1039942 254.16932,17.528 256.9,17.528 C259.588013,17.528 261.209331,18.1039942 261.764,19.256 C262.105335,19.8960032 262.308,20.4613309 262.372,20.952 C262.436,21.4426691 262.468,22.1786618 262.468,23.16 L262.468,36.472 C264.174675,34.3813229 266.606651,33.336 269.764,33.336 L269.764,33.336 Z M268.1,55.736 C269.678675,55.736 271.022661,55.1600058 272.132,54.008 C273.241339,52.8559942 273.796,51.576007 273.796,50.168 C273.796,48.759993 273.284005,47.4693392 272.26,46.296 C271.235995,45.1226608 269.870675,44.536 268.164,44.536 C266.457325,44.536 265.102672,45.1333274 264.1,46.328 C263.097328,47.5226726 262.596,48.8133264 262.596,50.2 C262.596,51.5866736 263.118661,52.8559942 264.164,54.008 C265.209339,55.1600058 266.521325,55.736 268.1,55.736 L268.1,55.736 Z M289.156,38.904 C289.156,37.9226618 289.188,37.1866691 289.252,36.696 C289.316,36.2053309 289.497332,35.6400032 289.796,35 C290.393336,33.8906611 292.05732,33.336 294.788,33.336 C296.83601,33.336 298.286662,33.698663 299.14,34.424 C299.865337,35.0213363 300.249333,35.9386605 300.292,37.176 C300.334667,37.6026688 300.356,38.2213293 300.356,39.032 L300.356,61.432 C300.356,62.4133382 300.324,63.1493309 300.26,63.64 C300.196,64.1306691 299.993335,64.6959968 299.652,65.336 C299.097331,66.4453389 297.45468,67 294.724,67 C292.035987,67 290.393336,66.4240058 289.796,65.272 C289.497332,64.6319968 289.316,64.0773357 289.252,63.608 C289.188,63.1386643 289.156,62.3920051 289.156,61.368 L289.156,38.904 Z M297.988,28.344 C297.177329,28.6000013 296.100007,28.728 294.756,28.728 C293.411993,28.728 292.334671,28.6000013 291.524,28.344 C290.713329,28.0879987 290.148002,27.6400032 289.828,27 C289.507998,26.3599968 289.316,25.7946691 289.252,25.304 C289.188,24.8133309 289.156,24.0773382 289.156,23.096 C289.156,22.1146618 289.188,21.3786691 289.252,20.888 C289.316,20.3973309 289.497332,19.8533363 289.796,19.256 C290.393336,18.1039942 292.05732,17.528 294.788,17.528 C297.476013,17.528 299.097331,18.1039942 299.652,19.256 C299.993335,19.8960032 300.196,20.4613309 300.26,20.952 C300.324,21.4426691 300.356,22.1786618 300.356,23.16 C300.356,24.1413382 300.324,24.8773309 300.26,25.368 C300.196,25.8586691 300.004002,26.4133302 299.684,27.032 C299.363998,27.6506698 298.798671,28.0879987 297.988,28.344 L297.988,28.344 Z" id="eski.mobi" fill="#FFFFFF"></path>
            </g>
        </g>
    </g>
</svg>